{
  "host": "localhost",
  "port": 3030,
  "nedb": "../data/",
  "public": "../public/",
  "auth": {
    "token": {
      "secret": "Hy6l1okYb7aEZqMXmoWQbiVlpI57RoS/3qyuEmQ+WegOD6D2XViXvF8JN5+HuMp7TZLEWsNBWdkDfszOtAbu5A=="
    },
    "local": {}
  }
}
